…
# rename list elements 
names(Ath_pairwise_dNdS_maps) <- paste0("Athaliana_vs_", c("Alyrata", "Bdistachyon","Crubella", "Esalsugineum", "Mtruncatula", "Thassleriana"))

# look at import
Ath_pairwise_dNdS_maps
```

```
$Athaliana_vs_Alyrata
# A tibble: 23,844 x 15
   query_id subject_id      dN    dS   dNdS perc_identity alig_length
   <chr>    <chr>        <dbl> <dbl>  <dbl>         <dbl>       <dbl>
 1 AT1G010… AL1G11530… 0.106   0.254 0.420           74.0         469
 2 AT1G010… AL1G11510… 0.0402  0.104 0.388           91.1         246
 3 AT1G010… AL1G11500… 0.0565  0.210 0.270           96.3         298
 4 AT1G010… AL1G11480… 0.0134  0.117 0.115           96.2        1915
 5 AT1G010… AL1G11470… 0       0.175 0              100           213
 6 AT1G010… AL1G11460… 0.0444  0.117 0.379           88.5         654
 7 AT1G010… AL1G11450… 0.0183  0.106 0.173           95.1         366
 8 AT1G010… AL1G11440… 0.0340  0.110 0.310           82.9         327
 9 AT1G010… AL1G11430… 0.00910 0.218 0.0417          96.8         434
10 AT1G011… AL1G11410… 0.0325  0.122 0.266           93.6         528
# … with 23,834 more rows, and 8 more variables: mismatches <dbl>,
#   gap_openings <dbl>, q_start <dbl>, q_end <dbl>, s_start <dbl>,
#   s_end <dbl>, evalue <dbl>, bit_score <dbl>

$Athaliana_vs_Bdistachyon
# A tibble: 12,148 x 15
   query_id subject_id    dN    dS    dNdS perc_identity alig_length mismatches
   <chr>    <chr>      <dbl> <dbl>   <dbl>         <dbl>       <dbl>      <dbl>
 1 AT1G010… Bradi3g16… 0.549 NA    NA               38.0         397        198
 2 AT1G010… Bradi3g13… 0.457 NA    NA               53.4         189         87
 3 AT1G010… Bradi5g01… 0.156  1.98  0.0790          86.7         354         44
 4 AT1G011… Bradi1g68… 0.297 NA    NA               60           550        186
 5 AT1G011… Bradi1g76… 0.198  1.92  0.103           72.6         445        115
 6 AT1G011… Bradi1g50… 0.197  1.20  0.165           72.6          73         20
 7 AT1G011… Bradi4g35… 0.474 NA    NA               56.5         248        101
 8 AT1G012… Bradi1g35… 0.235  1.52  0.155           65.4         214         63
 9 AT1G012… Bradi1g77… 0.255  2.77  0.0919          63.2        1060        365
10 AT1G012… Bradi4g35… 0.263 NA    NA               66.3         249         77
# … with 12,138 more rows, and 7 more variables: gap_openings <dbl>,
#   q_start <dbl>, q_end <dbl>, s_start <dbl>, s_end <dbl>, evalue <dbl>,
#   bit_score <dbl>

$Athaliana_vs_Crubella
# A tibble: 22,721 x 15
   query_id subject_id     dN    dS   dNdS perc_identity alig_length mismatches
   <chr>    <chr>       <dbl> <dbl>  <dbl>         <dbl>       <dbl>      <dbl>
 1 AT1G010… Carubv100… 0.112  0.276 0.405           68.5         482         88
 2 AT1G010… Carubv100… 0.0826 0.181 0.456           84.0         244         38
 3 AT1G010… Carubv100… 0.0282 0.225 0.126           93.9         361         19
 4 AT1G010… Carubv100… 0.0232 0.236 0.0980          94.5        1915         94
 5 AT1G010… Carubv100… 0.0106 0.239 0.0445          97.7         213          5
 6 AT1G010… Carubv100… 0.0540 0.202 0.267           87.9         651         68
 7 AT1G010… Carubv100… 0.0880 0.316 0.278           82.2         371         60
 8 AT1G010… Carubv100… 0.0703 0.213 0.329           85.1         295         35
 9 AT1G010… Carubv100… 0.0158 0.346 0.0457          95.2         433         15
10 AT1G011… Carubv100… 0.0554 0.227 0.244           84.9         543         63
# … with 22,711 more rows, and 7 more variables: gap_openings <dbl>,
#   q_start <dbl>, q_end <dbl>, s_start <dbl>, s_end <dbl>, evalue <dbl>,
#   bit_score <dbl>

$Athaliana_vs_Esalsugineum
# A tibble: 22,831 x 15
   query_id subject_id      dN    dS   dNdS perc_identity alig_length
   <chr>    <chr>        <dbl> <dbl>  <dbl>         <dbl>       <dbl>
 1 AT1G010… Thhalv100… 0.182   0.362 0.503           64.9         445
 2 AT1G010… Thhalv100… 0.101   0.281 0.361           81.1         244
 3 AT1G010… Thhalv100… 0.0259  0.253 0.102           91.9         360
 4 AT1G010… Thhalv100… 0.0334  0.314 0.106           92.9        1923
 5 AT1G010… NewID_000… 0.00718 0.385 0.0187          98.6         213
 6 AT1G010… NewID_000… 0.0965  0.275 0.351           77.6         664
 7 AT1G010… NewID_000… 0.0855  0.323 0.265           84.2         367
 8 AT1G010… NewID_000… 0.0639  0.291 0.220           86.9         297
 9 AT1G010… NewID_000… 0.0226  0.458 0.0493          94.2         432
10 AT1G011… Thhalv100… 0.0600  0.325 0.185           84.3         547
# … with 22,821 more rows, and 8 more variables: mismatches <dbl>,
#   gap_openings <dbl>, q_start <dbl>, q_end <dbl>, s_start <dbl>,
#   s_end <dbl>, evalue <dbl>, bit_score <dbl>

$Athaliana_vs_Mtruncatula
# A tibble: 14,287 x 15
   query_id subject_id     dN    dS    dNdS perc_identity alig_length
   <chr>    <chr>       <dbl> <dbl>   <dbl>         <dbl>       <dbl>
 1 AT1G010… Medtr7g08… 0.378   1.93  0.196           51.2         240
 2 AT1G010… Medtr7g11… 0.145   1.67  0.0868          74.2        1909
 3 AT1G010… Medtr8g02… 0.0858  1.32  0.0651          88.3         213
 4 AT1G010… Medtr7g11… 0.340   1.60  0.212           43.8         493
 5 AT1G010… Medtr7g11… 0.494  NA    NA               44.7         197
 6 AT1G010… Medtr8g02… 0.126   1.75  0.0720          82           400
 7 AT1G011… Medtr8g02… 0.264  NA    NA               55.3         580
 8 AT1G011… Medtr7g11… 0.178   2.07  0.0858          73.0         523
 9 AT1G011… Medtr8g02… 0.143   2.39  0.0597          74.6         437
10 AT1G011… Medtr7g09… 0.214   1.76  0.121           68.4          76
# … with 14,277 more rows, and 8 more variables: mismatches <dbl>,
#   gap_openings <dbl>, q_start <dbl>, q_end <dbl>, s_start <dbl>,
#   s_end <dbl>, evalue <dbl>, bit_score <dbl>

$Athaliana_vs_Thassleriana
# A tibble: 17,249 x 15
   query_id subject_id     dN    dS   dNdS perc_identity alig_length mismatches
   <chr>    <chr>       <dbl> <dbl>  <dbl>         <dbl>       <dbl>      <dbl>
 1 AT1G010… XM_010544… 0.240  0.907 0.264           67.0         224         71
 2 AT1G010… XM_010558… 0.142  1.16  0.122           60.9         391         79
 3 AT1G010… XM_010558… 0.0873 0.744 0.117           81.6        1954        281
 4 AT1G010… XM_010544… 0.0315 0.776 0.0406          93.5         215         12
 5 AT1G010… XM_010558… 0.204  0.867 0.235           57.1         750        196
 6 AT1G010… XM_010558… 0.239  0.852 0.281           52.4         750        220
 7 AT1G010… XM_010524… 0.224  1.30  0.172           65.2         368        118
 8 AT1G010… XM_010558… 0.159  0.856 0.186           70.5         295         75
 9 AT1G010… XM_010524… 0.0673 0.831 0.0810          85.9         432         55
10 AT1G011… XM_010558… 0.153  1.38  0.111           68.8         382         82
# … with 17,239 more rows, and 7 more variables: gap_openings <dbl>,
#   q_start <dbl>, q_end <dbl>, s_start <dbl>, s_end <dbl>, evalue <dbl>,
#   bit_score <dbl>
```

Individual pairwise dNdS files can then be selected by typing:

```r
# example: how to select individual dNdS maps
# here: dNdS map for A thaliana vs E salsugineum
Ath_pairwise_dNdS_maps$Athaliana_vs_Alyrata
```

```
 # A tibble: 23,844 x 15
   query_id subject_id      dN    dS   dNdS perc_identity alig_length
   <chr>    <chr>        <dbl> <dbl>  <dbl>         <dbl>       <dbl>
 1 AT1G010… AL1G11530… 0.106   0.254 0.420           74.0         469
 2 AT1G010… AL1G11510… 0.0402  0.104 0.388           91.1         246
 3 AT1G010… AL1G11500… 0.0565  0.210 0.270           96.3         298
 4 AT1G010… AL1G11480… 0.0134  0.117 0.115           96.2        1915
 5 AT1G010… AL1G11470… 0       0.175 0              100           213
 6 AT1G010… AL1G11460… 0.0444  0.117 0.379           88.5         654
 7 AT1G010… AL1G11450… 0.0183  0.106 0.173           95.1         366
 8 AT1G010… AL1G11440… 0.0340  0.110 0.310           82.9         327
 9 AT1G010… AL1G11430… 0.00910 0.218 0.0417          96.8         434
10 AT1G011… AL1G11410… 0.0325  0.122 0.266           93.6         528
# … with 23,834 more rows, and 8 more variables: mismatches <dbl>,
#   gap_openings <dbl>, q_start <dbl>, q_end <dbl>, s_start <dbl>,
#   s_end <dbl>, evalue <dbl>, bit_score <dbl>
```
…
